-- Merging decision tree log ---
manifest
ADDED from C:\Users\lmoy\Documents\AMSTA_Tablette_v2\AndroidTest\AMSTA_Tablette_v1\src\main\AndroidManifest.xml:2:1-42:12
	package
		ADDED from C:\Users\lmoy\Documents\AMSTA_Tablette_v2\AndroidTest\AMSTA_Tablette_v1\src\main\AndroidManifest.xml:2:70-110
		INJECTED from C:\Users\lmoy\Documents\AMSTA_Tablette_v2\AndroidTest\AMSTA_Tablette_v1\src\main\AndroidManifest.xml
		INJECTED from C:\Users\lmoy\Documents\AMSTA_Tablette_v2\AndroidTest\AMSTA_Tablette_v1\src\main\AndroidManifest.xml
	android:versionName
		ADDED from C:\Users\lmoy\Documents\AMSTA_Tablette_v2\AndroidTest\AMSTA_Tablette_v1\src\main\AndroidManifest.xml:2:159-184
		INJECTED from C:\Users\lmoy\Documents\AMSTA_Tablette_v2\AndroidTest\AMSTA_Tablette_v1\src\main\AndroidManifest.xml
		INJECTED from C:\Users\lmoy\Documents\AMSTA_Tablette_v2\AndroidTest\AMSTA_Tablette_v1\src\main\AndroidManifest.xml
	android:versionCode
		ADDED from C:\Users\lmoy\Documents\AMSTA_Tablette_v2\AndroidTest\AMSTA_Tablette_v1\src\main\AndroidManifest.xml:2:185-208
		INJECTED from C:\Users\lmoy\Documents\AMSTA_Tablette_v2\AndroidTest\AMSTA_Tablette_v1\src\main\AndroidManifest.xml
		INJECTED from C:\Users\lmoy\Documents\AMSTA_Tablette_v2\AndroidTest\AMSTA_Tablette_v1\src\main\AndroidManifest.xml
	xmlns:android
		ADDED from C:\Users\lmoy\Documents\AMSTA_Tablette_v2\AndroidTest\AMSTA_Tablette_v1\src\main\AndroidManifest.xml:2:11-69
	android:installLocation
		ADDED from C:\Users\lmoy\Documents\AMSTA_Tablette_v2\AndroidTest\AMSTA_Tablette_v1\src\main\AndroidManifest.xml:2:209-249
	android:theme
		ADDED from C:\Users\lmoy\Documents\AMSTA_Tablette_v2\AndroidTest\AMSTA_Tablette_v1\src\main\AndroidManifest.xml:2:111-158
uses-sdk
ADDED from C:\Users\lmoy\Documents\AMSTA_Tablette_v2\AndroidTest\AMSTA_Tablette_v1\src\main\AndroidManifest.xml:3:3-72
MERGED from [:VuforiaWrapper:] C:\Users\lmoy\.android\build-cache\a2fe770133f94cfad4dab152cb5a77d0b9584517\output\AndroidManifest.xml:8:5-10:41
	android:targetSdkVersion
		ADDED from C:\Users\lmoy\Documents\AMSTA_Tablette_v2\AndroidTest\AMSTA_Tablette_v1\src\main\AndroidManifest.xml:3:40-69
		INJECTED from C:\Users\lmoy\Documents\AMSTA_Tablette_v2\AndroidTest\AMSTA_Tablette_v1\src\main\AndroidManifest.xml
		INJECTED from C:\Users\lmoy\Documents\AMSTA_Tablette_v2\AndroidTest\AMSTA_Tablette_v1\src\main\AndroidManifest.xml
	android:minSdkVersion
		ADDED from C:\Users\lmoy\Documents\AMSTA_Tablette_v2\AndroidTest\AMSTA_Tablette_v1\src\main\AndroidManifest.xml:3:13-39
uses-feature#android.hardware.camera
ADDED from C:\Users\lmoy\Documents\AMSTA_Tablette_v2\AndroidTest\AMSTA_Tablette_v1\src\main\AndroidManifest.xml:4:3-58
MERGED from [:VuforiaWrapper:] C:\Users\lmoy\.android\build-cache\a2fe770133f94cfad4dab152cb5a77d0b9584517\output\AndroidManifest.xml:12:5-60
	android:name
		ADDED from C:\Users\lmoy\Documents\AMSTA_Tablette_v2\AndroidTest\AMSTA_Tablette_v1\src\main\AndroidManifest.xml:4:17-55
supports-screens
ADDED from C:\Users\lmoy\Documents\AMSTA_Tablette_v2\AndroidTest\AMSTA_Tablette_v1\src\main\AndroidManifest.xml:5:3-163
	android:largeScreens
		ADDED from C:\Users\lmoy\Documents\AMSTA_Tablette_v2\AndroidTest\AMSTA_Tablette_v1\src\main\AndroidManifest.xml:5:78-105
	android:smallScreens
		ADDED from C:\Users\lmoy\Documents\AMSTA_Tablette_v2\AndroidTest\AMSTA_Tablette_v1\src\main\AndroidManifest.xml:5:21-48
	android:normalScreens
		ADDED from C:\Users\lmoy\Documents\AMSTA_Tablette_v2\AndroidTest\AMSTA_Tablette_v1\src\main\AndroidManifest.xml:5:49-77
	android:xlargeScreens
		ADDED from C:\Users\lmoy\Documents\AMSTA_Tablette_v2\AndroidTest\AMSTA_Tablette_v1\src\main\AndroidManifest.xml:5:106-134
	android:anyDensity
		ADDED from C:\Users\lmoy\Documents\AMSTA_Tablette_v2\AndroidTest\AMSTA_Tablette_v1\src\main\AndroidManifest.xml:5:135-160
uses-permission#android.permission.INTERNET
ADDED from C:\Users\lmoy\Documents\AMSTA_Tablette_v2\AndroidTest\AMSTA_Tablette_v1\src\main\AndroidManifest.xml:6:3-65
MERGED from [:VuforiaWrapper:] C:\Users\lmoy\.android\build-cache\a2fe770133f94cfad4dab152cb5a77d0b9584517\output\AndroidManifest.xml:14:5-67
	android:name
		ADDED from C:\Users\lmoy\Documents\AMSTA_Tablette_v2\AndroidTest\AMSTA_Tablette_v1\src\main\AndroidManifest.xml:6:20-62
uses-permission#android.permission.CAMERA
ADDED from C:\Users\lmoy\Documents\AMSTA_Tablette_v2\AndroidTest\AMSTA_Tablette_v1\src\main\AndroidManifest.xml:7:3-63
MERGED from [:VuforiaWrapper:] C:\Users\lmoy\.android\build-cache\a2fe770133f94cfad4dab152cb5a77d0b9584517\output\AndroidManifest.xml:15:5-65
	android:name
		ADDED from C:\Users\lmoy\Documents\AMSTA_Tablette_v2\AndroidTest\AMSTA_Tablette_v1\src\main\AndroidManifest.xml:7:20-60
uses-permission#android.permission.ACCESS_NETWORK_STATE
ADDED from C:\Users\lmoy\Documents\AMSTA_Tablette_v2\AndroidTest\AMSTA_Tablette_v1\src\main\AndroidManifest.xml:8:3-77
MERGED from [:VuforiaWrapper:] C:\Users\lmoy\.android\build-cache\a2fe770133f94cfad4dab152cb5a77d0b9584517\output\AndroidManifest.xml:16:5-79
	android:name
		ADDED from C:\Users\lmoy\Documents\AMSTA_Tablette_v2\AndroidTest\AMSTA_Tablette_v1\src\main\AndroidManifest.xml:8:20-74
uses-permission#android.permission.WRITE_EXTERNAL_STORAGE
ADDED from C:\Users\lmoy\Documents\AMSTA_Tablette_v2\AndroidTest\AMSTA_Tablette_v1\src\main\AndroidManifest.xml:9:3-79
MERGED from [:VuforiaWrapper:] C:\Users\lmoy\.android\build-cache\a2fe770133f94cfad4dab152cb5a77d0b9584517\output\AndroidManifest.xml:17:5-81
	android:name
		ADDED from C:\Users\lmoy\Documents\AMSTA_Tablette_v2\AndroidTest\AMSTA_Tablette_v1\src\main\AndroidManifest.xml:9:20-76
application
ADDED from C:\Users\lmoy\Documents\AMSTA_Tablette_v2\AndroidTest\AMSTA_Tablette_v1\src\main\AndroidManifest.xml:10:3-35:17
MERGED from [:VuforiaWrapper:] C:\Users\lmoy\.android\build-cache\a2fe770133f94cfad4dab152cb5a77d0b9584517\output\AndroidManifest.xml:19:5-25:19
	android:label
		ADDED from C:\Users\lmoy\Documents\AMSTA_Tablette_v2\AndroidTest\AMSTA_Tablette_v1\src\main\AndroidManifest.xml:10:50-82
	android:debuggable
		ADDED from [:VuforiaWrapper:] C:\Users\lmoy\.android\build-cache\a2fe770133f94cfad4dab152cb5a77d0b9584517\output\AndroidManifest.xml:19:18-44
	android:icon
		ADDED from C:\Users\lmoy\Documents\AMSTA_Tablette_v2\AndroidTest\AMSTA_Tablette_v1\src\main\AndroidManifest.xml:10:16-49
	android:banner
		ADDED from C:\Users\lmoy\Documents\AMSTA_Tablette_v2\AndroidTest\AMSTA_Tablette_v1\src\main\AndroidManifest.xml:10:164-201
	android:theme
		ADDED from C:\Users\lmoy\Documents\AMSTA_Tablette_v2\AndroidTest\AMSTA_Tablette_v1\src\main\AndroidManifest.xml:10:83-141
	android:isGame
		ADDED from C:\Users\lmoy\Documents\AMSTA_Tablette_v2\AndroidTest\AMSTA_Tablette_v1\src\main\AndroidManifest.xml:10:142-163
activity#com.assystem.AMSTA_Tablette_v1.UnityPlayerNativeActivity
ADDED from C:\Users\lmoy\Documents\AMSTA_Tablette_v2\AndroidTest\AMSTA_Tablette_v1\src\main\AndroidManifest.xml:11:5-18:16
	android:screenOrientation
		ADDED from C:\Users\lmoy\Documents\AMSTA_Tablette_v2\AndroidTest\AMSTA_Tablette_v1\src\main\AndroidManifest.xml:11:48-84
	android:label
		ADDED from C:\Users\lmoy\Documents\AMSTA_Tablette_v2\AndroidTest\AMSTA_Tablette_v1\src\main\AndroidManifest.xml:11:15-47
	android:launchMode
		ADDED from C:\Users\lmoy\Documents\AMSTA_Tablette_v2\AndroidTest\AMSTA_Tablette_v1\src\main\AndroidManifest.xml:11:85-116
	android:configChanges
		ADDED from C:\Users\lmoy\Documents\AMSTA_Tablette_v2\AndroidTest\AMSTA_Tablette_v1\src\main\AndroidManifest.xml:11:117-290
	android:name
		ADDED from C:\Users\lmoy\Documents\AMSTA_Tablette_v2\AndroidTest\AMSTA_Tablette_v1\src\main\AndroidManifest.xml:11:291-362
intent-filter#android.intent.action.MAIN+android.intent.category.LAUNCHER
ADDED from C:\Users\lmoy\Documents\AMSTA_Tablette_v2\AndroidTest\AMSTA_Tablette_v1\src\main\AndroidManifest.xml:12:7-15:23
action#android.intent.action.MAIN
ADDED from C:\Users\lmoy\Documents\AMSTA_Tablette_v2\AndroidTest\AMSTA_Tablette_v1\src\main\AndroidManifest.xml:13:9-61
	android:name
		ADDED from C:\Users\lmoy\Documents\AMSTA_Tablette_v2\AndroidTest\AMSTA_Tablette_v1\src\main\AndroidManifest.xml:13:17-58
category#android.intent.category.LAUNCHER
ADDED from C:\Users\lmoy\Documents\AMSTA_Tablette_v2\AndroidTest\AMSTA_Tablette_v1\src\main\AndroidManifest.xml:14:9-69
	android:name
		ADDED from C:\Users\lmoy\Documents\AMSTA_Tablette_v2\AndroidTest\AMSTA_Tablette_v1\src\main\AndroidManifest.xml:14:19-66
meta-data#unityplayer.UnityActivity
ADDED from C:\Users\lmoy\Documents\AMSTA_Tablette_v2\AndroidTest\AMSTA_Tablette_v1\src\main\AndroidManifest.xml:16:7-82
	android:value
		ADDED from C:\Users\lmoy\Documents\AMSTA_Tablette_v2\AndroidTest\AMSTA_Tablette_v1\src\main\AndroidManifest.xml:16:59-79
	android:name
		ADDED from C:\Users\lmoy\Documents\AMSTA_Tablette_v2\AndroidTest\AMSTA_Tablette_v1\src\main\AndroidManifest.xml:16:18-58
meta-data#unityplayer.ForwardNativeEventsToDalvik
ADDED from C:\Users\lmoy\Documents\AMSTA_Tablette_v2\AndroidTest\AMSTA_Tablette_v1\src\main\AndroidManifest.xml:17:7-97
	android:value
		ADDED from C:\Users\lmoy\Documents\AMSTA_Tablette_v2\AndroidTest\AMSTA_Tablette_v1\src\main\AndroidManifest.xml:17:73-94
	android:name
		ADDED from C:\Users\lmoy\Documents\AMSTA_Tablette_v2\AndroidTest\AMSTA_Tablette_v1\src\main\AndroidManifest.xml:17:18-72
activity#com.unity3d.player.VideoPlayer
ADDED from C:\Users\lmoy\Documents\AMSTA_Tablette_v2\AndroidTest\AMSTA_Tablette_v1\src\main\AndroidManifest.xml:19:5-20:16
	android:screenOrientation
		ADDED from C:\Users\lmoy\Documents\AMSTA_Tablette_v2\AndroidTest\AMSTA_Tablette_v1\src\main\AndroidManifest.xml:19:94-130
	android:label
		ADDED from C:\Users\lmoy\Documents\AMSTA_Tablette_v2\AndroidTest\AMSTA_Tablette_v1\src\main\AndroidManifest.xml:19:61-93
	android:configChanges
		ADDED from C:\Users\lmoy\Documents\AMSTA_Tablette_v2\AndroidTest\AMSTA_Tablette_v1\src\main\AndroidManifest.xml:19:131-288
	android:name
		ADDED from C:\Users\lmoy\Documents\AMSTA_Tablette_v2\AndroidTest\AMSTA_Tablette_v1\src\main\AndroidManifest.xml:19:15-60
uses-library#com.ti.s3d
ADDED from C:\Users\lmoy\Documents\AMSTA_Tablette_v2\AndroidTest\AMSTA_Tablette_v1\src\main\AndroidManifest.xml:26:5-72
	android:required
		ADDED from C:\Users\lmoy\Documents\AMSTA_Tablette_v2\AndroidTest\AMSTA_Tablette_v1\src\main\AndroidManifest.xml:26:45-69
	android:name
		ADDED from C:\Users\lmoy\Documents\AMSTA_Tablette_v2\AndroidTest\AMSTA_Tablette_v1\src\main\AndroidManifest.xml:26:19-44
uses-library#com.osterhoutgroup.api.ext
ADDED from C:\Users\lmoy\Documents\AMSTA_Tablette_v2\AndroidTest\AMSTA_Tablette_v1\src\main\AndroidManifest.xml:30:5-88
MERGED from [:VuforiaWrapper:] C:\Users\lmoy\.android\build-cache\a2fe770133f94cfad4dab152cb5a77d0b9584517\output\AndroidManifest.xml:22:9-24:40
	android:required
		ADDED from C:\Users\lmoy\Documents\AMSTA_Tablette_v2\AndroidTest\AMSTA_Tablette_v1\src\main\AndroidManifest.xml:30:61-85
	android:name
		ADDED from C:\Users\lmoy\Documents\AMSTA_Tablette_v2\AndroidTest\AMSTA_Tablette_v1\src\main\AndroidManifest.xml:30:19-60
meta-data#unity.build-id
ADDED from C:\Users\lmoy\Documents\AMSTA_Tablette_v2\AndroidTest\AMSTA_Tablette_v1\src\main\AndroidManifest.xml:31:5-101
	android:value
		ADDED from C:\Users\lmoy\Documents\AMSTA_Tablette_v2\AndroidTest\AMSTA_Tablette_v1\src\main\AndroidManifest.xml:31:46-98
	android:name
		ADDED from C:\Users\lmoy\Documents\AMSTA_Tablette_v2\AndroidTest\AMSTA_Tablette_v1\src\main\AndroidManifest.xml:31:16-45
meta-data#unity.splash-mode
ADDED from C:\Users\lmoy\Documents\AMSTA_Tablette_v2\AndroidTest\AMSTA_Tablette_v1\src\main\AndroidManifest.xml:32:5-69
	android:value
		ADDED from C:\Users\lmoy\Documents\AMSTA_Tablette_v2\AndroidTest\AMSTA_Tablette_v1\src\main\AndroidManifest.xml:32:49-66
	android:name
		ADDED from C:\Users\lmoy\Documents\AMSTA_Tablette_v2\AndroidTest\AMSTA_Tablette_v1\src\main\AndroidManifest.xml:32:16-48
meta-data#unity.splash-enable
ADDED from C:\Users\lmoy\Documents\AMSTA_Tablette_v2\AndroidTest\AMSTA_Tablette_v1\src\main\AndroidManifest.xml:33:5-74
	android:value
		ADDED from C:\Users\lmoy\Documents\AMSTA_Tablette_v2\AndroidTest\AMSTA_Tablette_v1\src\main\AndroidManifest.xml:33:51-71
	android:name
		ADDED from C:\Users\lmoy\Documents\AMSTA_Tablette_v2\AndroidTest\AMSTA_Tablette_v1\src\main\AndroidManifest.xml:33:16-50
meta-data#android.max_aspect
ADDED from C:\Users\lmoy\Documents\AMSTA_Tablette_v2\AndroidTest\AMSTA_Tablette_v1\src\main\AndroidManifest.xml:34:5-72
	android:value
		ADDED from C:\Users\lmoy\Documents\AMSTA_Tablette_v2\AndroidTest\AMSTA_Tablette_v1\src\main\AndroidManifest.xml:34:50-69
	android:name
		ADDED from C:\Users\lmoy\Documents\AMSTA_Tablette_v2\AndroidTest\AMSTA_Tablette_v1\src\main\AndroidManifest.xml:34:16-49
uses-feature#0x00020000
ADDED from C:\Users\lmoy\Documents\AMSTA_Tablette_v2\AndroidTest\AMSTA_Tablette_v1\src\main\AndroidManifest.xml:36:3-52
	android:glEsVersion
		ADDED from C:\Users\lmoy\Documents\AMSTA_Tablette_v2\AndroidTest\AMSTA_Tablette_v1\src\main\AndroidManifest.xml:36:17-49
uses-feature#android.hardware.camera.autofocus
ADDED from C:\Users\lmoy\Documents\AMSTA_Tablette_v2\AndroidTest\AMSTA_Tablette_v1\src\main\AndroidManifest.xml:37:3-93
	android:required
		ADDED from C:\Users\lmoy\Documents\AMSTA_Tablette_v2\AndroidTest\AMSTA_Tablette_v1\src\main\AndroidManifest.xml:37:66-90
	android:name
		ADDED from C:\Users\lmoy\Documents\AMSTA_Tablette_v2\AndroidTest\AMSTA_Tablette_v1\src\main\AndroidManifest.xml:37:17-65
uses-feature#android.hardware.camera.front
ADDED from C:\Users\lmoy\Documents\AMSTA_Tablette_v2\AndroidTest\AMSTA_Tablette_v1\src\main\AndroidManifest.xml:38:3-89
	android:required
		ADDED from C:\Users\lmoy\Documents\AMSTA_Tablette_v2\AndroidTest\AMSTA_Tablette_v1\src\main\AndroidManifest.xml:38:62-86
	android:name
		ADDED from C:\Users\lmoy\Documents\AMSTA_Tablette_v2\AndroidTest\AMSTA_Tablette_v1\src\main\AndroidManifest.xml:38:17-61
uses-feature#android.hardware.touchscreen
ADDED from C:\Users\lmoy\Documents\AMSTA_Tablette_v2\AndroidTest\AMSTA_Tablette_v1\src\main\AndroidManifest.xml:39:3-88
	android:required
		ADDED from C:\Users\lmoy\Documents\AMSTA_Tablette_v2\AndroidTest\AMSTA_Tablette_v1\src\main\AndroidManifest.xml:39:61-85
	android:name
		ADDED from C:\Users\lmoy\Documents\AMSTA_Tablette_v2\AndroidTest\AMSTA_Tablette_v1\src\main\AndroidManifest.xml:39:17-60
uses-feature#android.hardware.touchscreen.multitouch
ADDED from C:\Users\lmoy\Documents\AMSTA_Tablette_v2\AndroidTest\AMSTA_Tablette_v1\src\main\AndroidManifest.xml:40:3-99
	android:required
		ADDED from C:\Users\lmoy\Documents\AMSTA_Tablette_v2\AndroidTest\AMSTA_Tablette_v1\src\main\AndroidManifest.xml:40:72-96
	android:name
		ADDED from C:\Users\lmoy\Documents\AMSTA_Tablette_v2\AndroidTest\AMSTA_Tablette_v1\src\main\AndroidManifest.xml:40:17-71
uses-feature#android.hardware.touchscreen.multitouch.distinct
ADDED from C:\Users\lmoy\Documents\AMSTA_Tablette_v2\AndroidTest\AMSTA_Tablette_v1\src\main\AndroidManifest.xml:41:3-108
	android:required
		ADDED from C:\Users\lmoy\Documents\AMSTA_Tablette_v2\AndroidTest\AMSTA_Tablette_v1\src\main\AndroidManifest.xml:41:81-105
	android:name
		ADDED from C:\Users\lmoy\Documents\AMSTA_Tablette_v2\AndroidTest\AMSTA_Tablette_v1\src\main\AndroidManifest.xml:41:17-80
uses-permission#android.permission.READ_EXTERNAL_STORAGE
IMPLIED from C:\Users\lmoy\Documents\AMSTA_Tablette_v2\AndroidTest\AMSTA_Tablette_v1\src\main\AndroidManifest.xml:2:1-42:12 reason: com.unity3d.player requested WRITE_EXTERNAL_STORAGE
